5 50 112
10 2000 182
1230 2343 183
2343 1230 183
999998 999999 259
999999 999998 259
1 1 1
100 1234 182
1923 2394 183
590 622 132
1234 1502 177
123456 123457 88
582039 581938 160
1 999999 525
10293 10693 255
999999 999999 259
615447 615973 310
968464 968970 308
394428 394848 405
519438 519571 302
678362 678402 261
800350 800760 282
533924 534198 302
346120 346649 348
194689 195217 342
642068 642747 416
187654 188072 285
459934 460337 307
676483 677177 305
704988 705437 380
245560 245840 319
757791 758261 287
201157 201206 236
761401 761457 300
866349 866372 158
713878 714418 305
634597 635005 310
497812 497913 289
351274 351835 379
33431 34035 267
365504 366034 335
977025 977680 321
260021 260034 301
595687 596164 297
474585 475073 351
270548 270829 363
213084 213304 280
933625 934157 370
629893 630480 341
217554 218129 262
692584 692625 230
939081 939327 339
35075 35469 280
356317 356378 242
83563 84097 289
616380 616570 310
604652 604859 253
552400 552823 315
944444 944637 383
964821 965472 277
509445 509524 227
822490 822701 238
777886 778177 269
381650 381697 224
622104 622440 310
415276 415562 250
337383 337955 366
992829 993312 352
854917 855408 264
41900 42592 288
156643 157033 308
263675 263890 270
912956 913395 264
684134 684397 336
669282 669782 292
444223 444275 188
871905 872262 432
503228 503518 258
195024 195463 298
836270 836744 313
150506 150891 295
257511 257687 257
972858 973389 321
713056 713753 380
918877 919537 339
581891 582104 328
213702 213867 218
257634 257682 257
960822 961057 414
718781 719351 318
515015 515391 395
183514 184043 285
407935 408442 299
517753 517861 302
403908 403982 237
924714 925141 339
500283 500323 302
925516 925721 339
402463 403157 268
192447 192695 272
966115 966709 365
667030 667438 367
969938 970147 290
190058 190486 329
322675 323294 322
57459 57840 273
481520 481652 276
380112 380724 379
173651 173721 272
939564 939666 202
481753 482198 382
600270 600949 297
650904 651559 336
674360 674577 248
192683 193246 347
891985 892030 264
